Executive Summary: EDA and Modeling
…
# Create a recipe for the data
music_rec <- recipe(popularity ~ acousticness + danceability + energy + 
                      instrumentalness + liveness + loudness + speechiness + 
                      tempo + valence + year + mode + explicit, 
                    data = music_train) %>%
  step_dummy(acousticness, instrumentalness, liveness, speechiness, mode, 
             explicit) %>%
  step_normalize(all_predictors())

# Prep and bake the recipe
prep(music_rec) %>%
  bake(new_data = NULL)

## # A tibble: 86,707 x 13
##    danceability energy loudness   tempo valence    year popularity
##           <dbl>  <dbl>    <dbl>   <dbl>   <dbl>   <dbl>      <dbl>
##  1      -1.64    1.41     1.16   2.43    0.0673 -0.252          29
##  2       1.25   -0.210   -0.317  0.0608 -0.408   0.291          57
##  3      -1.75   -1.04    -0.561 -0.929  -1.42   -1.09           11
##  4      -2.20   -1.54    -0.817  1.71   -1.43   -1.54            7
##  5      -0.874  -0.811    0.210  0.0273 -0.945  -1.59            6
##  6      -0.457  -0.781   -1.03   0.542  -0.191  -0.500          41
##  7       0.0760  0.730    0.968  0.310  -0.834   0.934          67
##  8      -1.43   -1.29    -3.18   1.11    0.984  -0.401          26
##  9      -0.457  -0.271    0.465  0.786  -0.910  -1.54            9
## 10      -0.347  -0.343    0.188  0.861  -0.796   0.0935         41
## #  with 86,697 more rows, and 6 more variables: acousticness_X1 <dbl>,
## #   instrumentalness_X1 <dbl>, liveness_X1 <dbl>, speechiness_X1 <dbl>,
## #   mode_X1 <dbl>, explicit_X1 <dbl>
…
